<?xml version="1.0" encoding="UTF-8"?>
<glyph name="i" format="2">
  <advance width="607"/>
  <unicode hex="0069"/>
  <outline>
    <contour>
      <point x="135" y="52" type="line"/>
      <point x="112" y="44" type="line"/>
      <point x="135" y="44" type="line"/>
    </contour>
    <contour>
      <point x="166" y="97" type="curve"/>
      <point x="166" y="77" type="line"/>
      <point x="166" y="75" type="line"/>
      <point x="166" y="73" type="line"/>
      <point x="166" y="44" type="line"/>
      <point x="197" y="44" type="line"/>
      <point x="197" y="68" type="line"/>
      <point x="185" y="78"/>
      <point x="175" y="88"/>
    </contour>
    <contour>
      <point x="229" y="196" type="curve"/>
      <point x="229" y="77" type="line"/>
      <point x="229" y="75" type="line"/>
      <point x="229" y="72" type="line"/>
      <point x="229" y="44" type="line"/>
      <point x="338" y="44" type="line" smooth="yes"/>
      <point x="404" y="44"/>
      <point x="444" y="51"/>
      <point x="463" y="59" type="curve" smooth="yes"/>
      <point x="472" y="63"/>
      <point x="475" y="66"/>
      <point x="476" y="68" type="curve" smooth="yes"/>
      <point x="477" y="70"/>
      <point x="477" y="72"/>
      <point x="474" y="77" type="curve" smooth="yes"/>
      <point x="468" y="88"/>
      <point x="447" y="105"/>
      <point x="419" y="122" type="curve" smooth="yes"/>
      <point x="369" y="152"/>
      <point x="294" y="182"/>
    </contour>
    <contour>
      <point x="166" y="204" type="curve"/>
      <point x="166" y="142" type="line"/>
      <point x="174" y="132"/>
      <point x="185" y="122"/>
      <point x="197" y="110" type="curve"/>
      <point x="197" y="202" type="line"/>
      <point x="185" y="204"/>
      <point x="175" y="204"/>
    </contour>
    <contour>
      <point x="135" y="421" type="line"/>
      <point x="102" y="416" type="line"/>
      <point x="135" y="407" type="line"/>
      <point x="135" y="419" type="line"/>
    </contour>
    <contour>
      <point x="166" y="235" type="line"/>
      <point x="177" y="235"/>
      <point x="186" y="234"/>
      <point x="197" y="233" type="curve"/>
      <point x="197" y="431" type="line"/>
      <point x="165" y="426" type="line" smooth="yes"/>
      <point x="166" y="424"/>
      <point x="166" y="421"/>
      <point x="166" y="419" type="curve" smooth="yes"/>
      <point x="166" y="390" type="line"/>
      <point x="166" y="387" type="line"/>
      <point x="166" y="385" type="line"/>
    </contour>
    <contour>
      <point x="213" y="466" type="curve" smooth="yes"/>
      <point x="222" y="466"/>
      <point x="229" y="458"/>
      <point x="229" y="450" type="curve" smooth="yes"/>
      <point x="229" y="447" type="line"/>
      <point x="229" y="228" type="line"/>
      <point x="300" y="213"/>
      <point x="380" y="181"/>
      <point x="435" y="149" type="curve" smooth="yes"/>
      <point x="465" y="131"/>
      <point x="489" y="113"/>
      <point x="501" y="92" type="curve" smooth="yes"/>
      <point x="518" y="63"/>
      <point x="499" y="40"/>
      <point x="476" y="30" type="curve" smooth="yes"/>
      <point x="449" y="18"/>
      <point x="406" y="12"/>
      <point x="338" y="12" type="curve" smooth="yes"/>
      <point x="26" y="12" type="line" smooth="yes"/>
      <point x="17" y="12"/>
      <point x="10" y="19"/>
      <point x="10" y="28" type="curve" smooth="yes"/>
      <point x="10" y="34"/>
      <point x="14" y="41"/>
      <point x="20" y="43" type="curve" smooth="yes"/>
      <point x="135" y="86" type="line"/>
      <point x="135" y="130" type="line"/>
      <point x="124" y="144"/>
      <point x="116" y="156"/>
      <point x="111" y="167" type="curve" smooth="yes"/>
      <point x="97" y="198"/>
      <point x="109" y="223"/>
      <point x="135" y="231" type="curve"/>
      <point x="135" y="375" type="line"/>
      <point x="22" y="403" type="line" smooth="yes"/>
      <point x="15" y="405"/>
      <point x="10" y="412"/>
      <point x="10" y="419" type="curve" smooth="yes"/>
      <point x="10" y="426"/>
      <point x="16" y="433"/>
      <point x="23" y="434" type="curve" smooth="yes"/>
      <point x="208" y="465" type="line" smooth="yes"/>
      <point x="209" y="465"/>
      <point x="212" y="466"/>
    </contour>
    <contour>
      <point x="182" y="676" type="line" smooth="yes"/>
      <point x="204" y="676"/>
      <point x="222" y="659"/>
      <point x="222" y="637" type="curve" smooth="yes"/>
      <point x="222" y="615"/>
      <point x="204" y="598"/>
      <point x="182" y="598" type="curve" smooth="yes"/>
      <point x="181" y="598" type="line" smooth="yes"/>
      <point x="159" y="598"/>
      <point x="142" y="615"/>
      <point x="142" y="637" type="curve" smooth="yes"/>
      <point x="142" y="659"/>
      <point x="159" y="676"/>
      <point x="181" y="676" type="curve" smooth="yes"/>
    </contour>
  </outline>
  <lib>
    <dict>
      <key>com.fontlab.hintData</key>
      <dict>
        <key>hhints</key>
        <array>
          <dict>
            <key>position</key>
            <integer>12</integer>
            <key>width</key>
            <integer>32</integer>
          </dict>
          <dict>
            <key>position</key>
            <integer>204</integer>
            <key>width</key>
            <integer>31</integer>
          </dict>
          <dict>
            <key>position</key>
            <integer>403</integer>
            <key>width</key>
            <integer>31</integer>
          </dict>
          <dict>
            <key>position</key>
            <integer>446</integer>
            <key>width</key>
            <integer>20</integer>
          </dict>
          <dict>
            <key>position</key>
            <integer>598</integer>
            <key>width</key>
            <integer>78</integer>
          </dict>
        </array>
        <key>vhints</key>
        <array>
          <dict>
            <key>position</key>
            <integer>135</integer>
            <key>width</key>
            <integer>31</integer>
          </dict>
          <dict>
            <key>position</key>
            <integer>142</integer>
            <key>width</key>
            <integer>80</integer>
          </dict>
          <dict>
            <key>position</key>
            <integer>197</integer>
            <key>width</key>
            <integer>32</integer>
          </dict>
        </array>
      </dict>
    </dict>
  </lib>
</glyph>
